[
    {
	    "id": 12, 
        "name": "EPS",
        "price": 150,
	    "color": "gray",
        "mortgage": 75
    },
    {
	    "id": 28,
        "name": "Gradski vodovod",
        "price": 150,
	    "color": "gray",
        "mortgage": 75
    },
    {
	    "id": 5,
        "name": "Glavna zeleznicka stanica Beograd",
        "price": 200,
	    "color": "darksalmon",
        "mortgage": 100
    },
    {
	    "id": 15,
        "name": "Novosadska zeleznicka stanica",
        "price": 200,
	    "color": "darksalmon",
        "mortgage": 100
    },
    {
	    "id": 25,
        "name": "Niska zeleznicka stanica",
        "price": 200,
	    "color": "darksalmon",
        "mortgage": 100
    },
    {
	    "id": 35,
        "name": "Beogradski aerodrom Nikola Tesla",
        "price": 200,
	    "color": "darksalmon",
        "mortgage": 100
    }
]
